<svg width="35" height="35" viewBox="0 0 35 35" fill="none" xmlns="http://www.w3.org/2000/svg">
<path d="M29.8957 16.4785V10.266C29.8957 4.38894 28.5248 2.91602 23.0123 2.91602H11.9873C6.47484 2.91602 5.104 4.38894 5.104 10.266V26.6868C5.104 30.566 7.23319 31.4848 9.81444 28.7139L9.82899 28.6993C11.0248 27.4306 12.8477 27.5327 13.8832 28.9181L15.3561 30.8868" stroke="#FAFAFA" stroke-width="2" stroke-linecap="round" stroke-linejoin="round"/>
<path d="M11.6665 10.209H23.3332" stroke="#FAFAFA" stroke-width="2" stroke-linecap="round" stroke-linejoin="round"/>
<path d="M13.125 16.041H21.875" stroke="#FAFAFA" stroke-width="2" stroke-linecap="round" stroke-linejoin="round"/>
<path d="M26.5579 21.5407L21.3954 26.7032C21.1912 26.9074 21.0016 27.2866 20.9579 27.5636L20.6808 29.5324C20.5787 30.247 21.0746 30.7428 21.7891 30.6407L23.7579 30.3637C24.035 30.3199 24.4287 30.1303 24.6183 29.9261L29.7808 24.7637C30.6704 23.8741 31.0933 22.8387 29.7808 21.5262C28.4829 20.2282 27.4475 20.6511 26.5579 21.5407Z" stroke="#FAFAFA" stroke-width="2" stroke-miterlimit="10" stroke-linecap="round" stroke-linejoin="round"/>
<path d="M25.8115 22.2852C26.249 23.8602 27.474 25.0852 29.049 25.5227" stroke="#FAFAFA" stroke-width="2" stroke-miterlimit="10" stroke-linecap="round" stroke-linejoin="round"/>
</svg>
